\relax 
\catcode`"\active
\catcode`-\active
\select@language{czech}
\@writefile{toc}{\select@language{czech}}
\@writefile{lof}{\select@language{czech}}
\@writefile{lot}{\select@language{czech}}
\citation{puvodniPrace}
\citation{puvodniPrace}
\@writefile{toc}{\contentsline {section}{\numberline {1}\IeC {\'U}vod}{5}}
\newlabel{sec:Uvod}{{1}{5}}
\citation{sylab}
\citation{bussinessMod}
\citation{pnfitBrno1}
\@writefile{toc}{\contentsline {section}{\numberline {2}O Petriho s\IeC {\'\i }t\IeC {\'\i }ch}{6}}
\newlabel{sec:oPetrihoSitich}{{2}{6}}
\@writefile{toc}{\contentsline {subsection}{\numberline {2.1}Sezn\IeC {\'a}men\IeC {\'\i } s Petriho s\IeC {\'\i }t\IeC {\v e}mi}{6}}
\newlabel{sec:seznamenisPN}{{2.1}{6}}
\@writefile{toc}{\contentsline {subsection}{\numberline {2.2}Historie Petriho s\IeC {\'\i }t\IeC {\'\i }}{6}}
\newlabel{sec:historiePN}{{2.2}{6}}
\@writefile{toc}{\contentsline {subsection}{\numberline {2.3}Popis a stavov\IeC {\'a} anal\IeC {\'y}za P/T Petriho s\IeC {\'\i }t\IeC {\v e}}{7}}
\newlabel{sec:PTPN}{{2.3}{7}}
\citation{sylab}
\citation{bussinessMod}
\citation{sylab}
\newlabel{def:strukturaPN}{{2.1}{8}}
\newlabel{def:znaceniPN}{{2.2}{8}}
\newlabel{def:systemPN}{{2.3}{8}}
\citation{sylab}
\citation{sylab}
\newlabel{def:provedeniPrechodu}{{2.4}{9}}
\newlabel{def:proveditelnostPrechodu}{{2.5}{9}}
\citation{sylab}
\citation{sylab}
\citation{sylab}
\citation{sylab}
\citation{sylab}
\@writefile{lof}{\contentsline {figure}{\numberline {1}{\ignorespaces Proveden\IeC {\'\i } p\IeC {\v r}echodu v Petriho s\IeC {\'\i }ti.}}{10}}
\newlabel{obr.provedeniPN}{{1}{10}}
\newlabel{def:proveditelnostSite}{{2.6}{10}}
\newlabel{def:dosazitelnostZnaceniPN}{{2.7}{10}}
\newlabel{def:mnozinaDosazitelnostiPN}{{2.8}{10}}
\newlabel{def:vzdyDosazitelnostZnaceniPN}{{2.9}{10}}
\citation{sylab}
\citation{sylab}
\citation{sylab}
\citation{sylab}
\citation{sylab}
\citation{sylab}
\citation{sylab}
\citation{sylab}
\citation{sylab}
\newlabel{def:reversibilitaPN}{{2.10}{11}}
\newlabel{def:bezUzamceniPN}{{2.11}{11}}
\newlabel{def:komezenotMistaPN}{{2.12}{11}}
\newlabel{def:komezenotSystemuPN}{{2.13}{11}}
\newlabel{def:bezpecnostsystemuPN}{{2.14}{11}}
\newlabel{def:mrtvyPrechodPN}{{2.15}{11}}
\newlabel{def:zivostPrechoduPN}{{2.16}{11}}
\newlabel{def:mrtvostVSystemuPN}{{2.17}{11}}
\newlabel{def:zivostVSystemuPN}{{2.18}{11}}
\citation{sylab}
\newlabel{def:mrtvySystemPN}{{2.19}{12}}
\newlabel{def:zivySystemPN}{{2.20}{12}}
\newlabel{def:spravnaPN}{{2.21}{12}}
\@writefile{toc}{\contentsline {subsection}{\numberline {2.4}Hierarchick\IeC {\'e} Petriho s\IeC {\'\i }t\IeC {\v e}}{12}}
\newlabel{sec:hierarchicalPN}{{2.4}{12}}
\@writefile{toc}{\contentsline {subsection}{\numberline {2.5}\IeC {\v C}asovan\IeC {\'e} s\IeC {\'\i }t\IeC {\v e}}{12}}
\newlabel{sec:timedPN}{{2.5}{12}}
\@writefile{toc}{\contentsline {subsection}{\numberline {2.6}Objektov\IeC {\v e} orientovan\IeC {\'e} s\IeC {\'\i }t\IeC {\v e}}{13}}
\newlabel{sec:OOPN}{{2.6}{13}}
\citation{latex}
\citation{latexCZ}
\citation{java.com}
\citation{vogellaJava}
\citation{java8}
\citation{java8Introduction}
\@writefile{toc}{\contentsline {section}{\numberline {3}Vyu\IeC {\v z}\IeC {\'\i }van\IeC {\'e} technologie}{14}}
\newlabel{sec:technologie}{{3}{14}}
\@writefile{toc}{\contentsline {subsection}{\numberline {3.1}N\IeC {\'a}stroj pro sazbu \textlatin  {\LaTeX  }}{14}}
\newlabel{sec:latex}{{3.1}{14}}
\@writefile{toc}{\contentsline {subsection}{\numberline {3.2}Java}{14}}
\newlabel{sec:java}{{3.2}{14}}
\citation{eclipseIntroduction}
\citation{gmfdoc1}
\citation{gmfdoc2}
\@writefile{toc}{\contentsline {subsection}{\numberline {3.3}Eclipse}{15}}
\newlabel{sec:eclipse}{{3.3}{15}}
\@writefile{toc}{\contentsline {subsection}{\numberline {3.4}Graphical Modeling Framework}{15}}
\newlabel{sec:GMF}{{3.4}{15}}
\citation{groovy}
\citation{groovycz2}
\citation{groovycz3}
\@writefile{lof}{\contentsline {figure}{\numberline {2}{\ignorespaces GMF Dashboard}}{16}}
\newlabel{obr.gmfDashboard}{{2}{16}}
\@writefile{toc}{\contentsline {subsection}{\numberline {3.5}Groovy}{16}}
\newlabel{sec:groovy}{{3.5}{16}}
\citation{knihaGit}
\@writefile{toc}{\contentsline {subsection}{\numberline {3.6}Verzovac\IeC {\'\i } syst\IeC {\'e}m}{17}}
\newlabel{sec:git}{{3.6}{17}}
\@writefile{toc}{\contentsline {section}{\numberline {4}Popis v\IeC {\'y}choz\IeC {\'\i }ho stavu a anal\IeC {\'y}za}{18}}
\newlabel{sec:implementaceBeg}{{4}{18}}
\@writefile{toc}{\contentsline {subsection}{\numberline {4.1}Prvn\IeC {\'\i } spu\IeC {\v s}t\IeC {\v e}n\IeC {\'\i }}{18}}
\newlabel{sec:prvniSpusteni}{{4.1}{18}}
\@writefile{lof}{\contentsline {figure}{\numberline {3}{\ignorespaces Chyb\IeC {\v e}j\IeC {\'\i }c\IeC {\'\i } knihovny v b\IeC {\v e}\IeC {\v z}n\IeC {\'e}m prost\IeC {\v r}ed\IeC {\'\i }.}}{18}}
\newlabel{obr.chyby}{{3}{18}}
\newlabel{src:chybneMetody}{{1}{18}}
\@writefile{lol}{\contentsline {lstlisting}{\numberline {1}Hlavi\IeC {\v c}ky chybn\IeC {\v e} vygenerovan\IeC {\'y}ch metod}{18}}
\@writefile{lof}{\contentsline {figure}{\numberline {4}{\ignorespaces Chybn\IeC {\v e} vygenerovan\IeC {\'a} paleta}}{19}}
\newlabel{obr.paleta}{{4}{19}}
\@writefile{toc}{\contentsline {subsection}{\numberline {4.2}O\IeC {\v s}et\IeC {\v r}en\IeC {\'\i } cyklick\IeC {\'y}ch z\IeC {\'a}vislostn\IeC {\'\i }}{19}}
\newlabel{sec:prvniSpusteni}{{4.2}{19}}
\@writefile{lof}{\contentsline {figure}{\numberline {5}{\ignorespaces Valida\IeC {\v c}n\IeC {\'\i } audit}}{20}}
\newlabel{obr.audit}{{5}{20}}
\newlabel{src:validacniMetoda}{{2}{21}}
\@writefile{lol}{\contentsline {lstlisting}{\numberline {2}Valida\IeC {\v c}n\IeC {\'\i } metoda \IeC {\v r}e\IeC {\v s}\IeC {\'\i }c\IeC {\'\i } nevalidn\IeC {\'\i } hrany.}{21}}
\newlabel{src:validacniMetodaStart}{{3}{21}}
\@writefile{lol}{\contentsline {lstlisting}{\numberline {3}Vol\IeC {\'a}n\IeC {\'\i } validace.}{21}}
\@writefile{toc}{\contentsline {subsection}{\numberline {4.3}Dal\IeC {\v s}\IeC {\'\i } pravidla validace}{21}}
\newlabel{sec:dalsiValidace}{{4.3}{21}}
\@writefile{toc}{\contentsline {subsection}{\numberline {4.4}\IeC {\'U}prava menu}{22}}
\newlabel{sec:upravaMenu}{{4.4}{22}}
\@writefile{toc}{\contentsline {subsection}{\numberline {4.5}Programov\IeC {\'a}n\IeC {\'\i } simulace}{22}}
\newlabel{sec:programovaniSimulace}{{4.5}{22}}
\citation{eclipseHelp}
\@writefile{toc}{\contentsline {subsection}{\numberline {4.6}Vytvo\IeC {\v r}en\IeC {\'\i } requestu}{24}}
\newlabel{sec:vytvoreniRequestu}{{4.6}{24}}
\newlabel{src:createReq}{{4}{24}}
\@writefile{lol}{\contentsline {lstlisting}{\numberline {4}Vytvo\IeC {\v r}en\IeC {\'\i } requestu pro maz\IeC {\'a}n\IeC {\'\i }.}{24}}
\@writefile{toc}{\contentsline {subsection}{\numberline {4.7}Vykreslov\IeC {\'a}n\IeC {\'\i } v\IeC {\'y}sledk\IeC {\r u}}{25}}
\newlabel{sec:vykresleniVysledku}{{4.7}{25}}
\newlabel{src:simulace}{{5}{25}}
\@writefile{lol}{\contentsline {lstlisting}{\numberline {5}Primitivn\IeC {\'\i } simulace element\IeC {\r u}.}{25}}
\@writefile{toc}{\contentsline {subsection}{\numberline {4.8}Oprava chyb s requestem}{26}}
\newlabel{sec:opravaRequestu}{{4.8}{26}}
\newlabel{src:addObject}{{6}{27}}
\@writefile{lol}{\contentsline {lstlisting}{\numberline {6}Metoda p\IeC {\v r}id\IeC {\'a}vaj\IeC {\'\i }c\IeC {\'\i } objekt.}{27}}
\citation{puvodniPrace}
\@writefile{toc}{\contentsline {section}{\numberline {5}P\IeC {\v r}epracov\IeC {\'a}n\IeC {\'\i } modelu}{28}}
\newlabel{sec:zmenaModelu}{{5}{28}}
\@writefile{toc}{\contentsline {subsection}{\numberline {5.1}Probl\IeC {\'e}m s modelem}{28}}
\newlabel{sec:problemModelu}{{5.1}{28}}
\@writefile{lof}{\contentsline {figure}{\numberline {6}{\ignorespaces P\IeC {\r u}vodn\IeC {\'\i } n\IeC {\'a}vrh m\IeC {\'\i }sta}}{28}}
\newlabel{obr.modelOld}{{6}{28}}
\@writefile{toc}{\contentsline {subsection}{\numberline {5.2}Zm\IeC {\v e}na modelu}{29}}
\newlabel{sec:zmenaModelu}{{5.2}{29}}
\@writefile{lof}{\contentsline {figure}{\numberline {7}{\ignorespaces Nov\IeC {\'y} n\IeC {\'a}vrh m\IeC {\'\i }sta}}{29}}
\newlabel{obr.modelNew}{{7}{29}}
\@writefile{lof}{\contentsline {figure}{\numberline {8}{\ignorespaces P\IeC {\r u}vodn\IeC {\'\i } (vlevo) a opraven\IeC {\'y}(vpravo) model s\IeC {\'\i }t\IeC {\v e}}}{31}}
\newlabel{obr.model}{{8}{31}}
\citation{properties}
\@writefile{lof}{\contentsline {figure}{\numberline {9}{\ignorespaces Chybov\IeC {\'a} hl\IeC {\'a}\IeC {\v s}ka}}{32}}
\newlabel{obr.chybaConstains}{{9}{32}}
\@writefile{toc}{\contentsline {subsection}{\numberline {5.3}P\IeC {\v r}id\IeC {\'a}n\IeC {\'\i } u\IeC {\v z}ivatelsk\IeC {\'y}ch atribut\IeC {\r u} objektu}{32}}
\newlabel{sec:hashMapaObjektu}{{5.3}{32}}
\newlabel{src:toMap}{{7}{33}}
\@writefile{lol}{\contentsline {lstlisting}{\numberline {7}Metoda p\IeC {\v r}ev\IeC {\'a}d\IeC {\v e}j\IeC {\'\i }c\IeC {\'\i } String na HashMapu}{33}}
\newlabel{src:toString}{{8}{33}}
\@writefile{lol}{\contentsline {lstlisting}{\numberline {8}P\IeC {\v r}\IeC {\'\i }klad zji\IeC {\v s}t\IeC {\v e}n\IeC {\'\i } typu objektu}{33}}
\@writefile{toc}{\contentsline {subsection}{\numberline {5.4}Vytv\IeC {\'a}\IeC {\v r}en\IeC {\'\i } objekt\IeC {\r u}}{34}}
\newlabel{sec:vnikObjektu}{{5.4}{34}}
\newlabel{src:setCount}{{9}{34}}
\@writefile{lol}{\contentsline {lstlisting}{\numberline {9}Zp\IeC {\r u}sob zm\IeC {\v e}ny po\IeC {\v c}tu objekt\IeC {\r u} v listu}{34}}
\@writefile{toc}{\contentsline {section}{\numberline {6}Dokon\IeC {\v c}en\IeC {\'\i } simulace}{36}}
\newlabel{sec:dokonceniSimulace}{{6}{36}}
\@writefile{toc}{\contentsline {subsection}{\numberline {6.1}\IeC {\'U}prava simulace pro nov\IeC {\'y} model}{36}}
\newlabel{sec:opravaSimulaceProNovyModel}{{6.1}{36}}
\newlabel{src:simulaceObjekty}{{10}{36}}
\@writefile{lol}{\contentsline {lstlisting}{\numberline {10}Zm\IeC {\v e}na po\IeC {\v c}tu objekt\IeC {\r u} simulac\IeC {\'\i }}{36}}
\@writefile{toc}{\contentsline {subsection}{\numberline {6.2}\IeC {\v R}e\IeC {\v s}en\IeC {\'\i } n\IeC {\'a}hodn\IeC {\'e} volby parametr\IeC {\r u}}{37}}
\newlabel{sec:nahodnaVolbaParametru}{{6.2}{37}}
\newlabel{src:opravaScenare}{{11}{37}}
\@writefile{lol}{\contentsline {lstlisting}{\numberline {11}Zm\IeC {\v e}na po\IeC {\v c}tu objekt\IeC {\r u} simulac\IeC {\'\i }}{37}}
\newlabel{src:getScenarioToDo}{{12}{38}}
\@writefile{lol}{\contentsline {lstlisting}{\numberline {12}Metoda pro n\IeC {\'a}hodnou volbu sc\IeC {\'e}n\IeC {\'a}\IeC {\v r}e.}{38}}
\newlabel{src:getProvedScenar}{{13}{38}}
\@writefile{lol}{\contentsline {lstlisting}{\numberline {13}Algoritmu testuj\IeC {\'\i }c\IeC {\'\i } proeden\IeC {\'\i } hrany.}{38}}
\citation{javaScriptingOracle}
\citation{javaGroovy}
\@writefile{toc}{\contentsline {subsection}{\numberline {6.3}Implementace skriptovac\IeC {\'\i }ho enginu}{39}}
\newlabel{sec:skriptovaciEngine}{{6.3}{39}}
\newlabel{src:helloWorldScript}{{14}{40}}
\@writefile{lol}{\contentsline {lstlisting}{\numberline {14}P\IeC {\v r}\IeC {\'\i }klad proveden\IeC {\'\i } skriptu.}{40}}
\newlabel{src:scriptHashMap}{{15}{40}}
\@writefile{lol}{\contentsline {lstlisting}{\numberline {15}Pr\IeC {\'a}ce scriptu s mapou.}{40}}
\newlabel{src:scriptInOut}{{16}{41}}
\@writefile{lol}{\contentsline {lstlisting}{\numberline {16}Uk\IeC {\'a}zka nastaven\IeC {\'\i } vstupn\IeC {\'\i }ho objektu jako v\IeC {\'y}stupn\IeC {\'\i }.}{41}}
\@writefile{toc}{\contentsline {subsection}{\numberline {6.4}Dopln\IeC {\v e}n\IeC {\'\i } chyb\IeC {\v e}j\IeC {\'\i }c\IeC {\'\i }ch \IeC {\v c}\IeC {\'a}st\IeC {\'\i }}{41}}
\newlabel{sec:doplneniCybejcichCasti}{{6.4}{41}}
\newlabel{src:getValue}{{17}{42}}
\@writefile{lol}{\contentsline {lstlisting}{\numberline {17}Vyb\IeC {\v e}r hodnoty sc\IeC {\'e}n\IeC {\'a}\IeC {\v r}e.}{42}}
\@writefile{toc}{\contentsline {subsection}{\numberline {6.5}P\IeC {\v r}id\IeC {\'a}n\IeC {\'\i } dal\IeC {\v s}\IeC {\'\i }ch akc\IeC {\'\i }}{42}}
\newlabel{sec:dalsiAkce}{{6.5}{42}}
\@writefile{lof}{\contentsline {figure}{\numberline {10}{\ignorespaces Potvrzen\IeC {\'\i } v\IeC {\'\i }ce p\IeC {\v r}echod\IeC {\r u}}}{42}}
\newlabel{obr.hlaska}{{10}{42}}
\newlabel{src:emfCopy}{{18}{43}}
\@writefile{lol}{\contentsline {lstlisting}{\numberline {18}Vytv\IeC {\'a}\IeC {\v r}en\IeC {\'\i } kopie hlavn\IeC {\'\i }ho procesu}{43}}
\newlabel{src:obnoveniProcOld}{{19}{43}}
\@writefile{lol}{\contentsline {lstlisting}{\numberline {19}Obnoven\IeC {\'\i } stavu s\IeC {\'\i }t\IeC {\v e} z ulo\IeC {\v z}en\IeC {\'e}ho objektu}{43}}
\newlabel{src:placeCopy}{{20}{44}}
\@writefile{lol}{\contentsline {lstlisting}{\numberline {20}Obnoven\IeC {\'\i } objekt\IeC {\r u} v m\IeC {\'\i }st\IeC {\v e}}{44}}
\newlabel{src:placeGroupName}{{21}{44}}
\@writefile{lol}{\contentsline {lstlisting}{\numberline {21}Oprava typu objekt\IeC {\r u} p\IeC {\v r}ed aktualizac\IeC {\'\i }}{44}}
\newlabel{src:mapCopy}{{22}{46}}
\@writefile{lol}{\contentsline {lstlisting}{\numberline {22}Vytvo\IeC {\v r}en\IeC {\'\i } hashpapy mapuj\IeC {\'\i }c\IeC {\'\i } dvojice objekt\IeC {\r u} p\IeC {\r u}vodn\IeC {\'\i }-kopie}{46}}
\newlabel{src:placeCopyNew}{{23}{46}}
\@writefile{lol}{\contentsline {lstlisting}{\numberline {23}Obnoven\IeC {\'\i } objekt\IeC {\r u} v m\IeC {\'\i }st\IeC {\v e}}{46}}
\@writefile{toc}{\contentsline {section}{\numberline {7}Dokon\IeC {\v c}en\IeC {\'\i }}{47}}
\newlabel{sec:dokonceni}{{7}{47}}
\@writefile{toc}{\contentsline {subsection}{\numberline {7.1}Roz\IeC {\v s}\IeC {\'\i }\IeC {\v r}en\IeC {\'\i } modelu a simulace o \IeC {\v c}as}{47}}
\newlabel{sec:opravaSimulaceProNovyModel}{{7.1}{47}}
\newlabel{src:newProved}{{24}{49}}
\@writefile{lol}{\contentsline {lstlisting}{\numberline {24}Nov\IeC {\'y} zp\IeC {\r u}sob z\IeC {\'\i }sk\IeC {\'a}n\IeC {\'\i } pracovn\IeC {\'\i }ch objektu a zbytku skupiny.}{49}}
\@writefile{toc}{\contentsline {subsection}{\numberline {7.2}Zachycen\IeC {\'\i } z\IeC {\'a}znamu b\IeC {\v e}hu}{49}}
\newlabel{sec:zaznamBehu}{{7.2}{49}}
\@writefile{toc}{\contentsline {subsection}{\numberline {7.3}Dopln\IeC {\v e}n\IeC {\'\i } guardu p\IeC {\v r}echodu}{49}}
\newlabel{sec:guard}{{7.3}{49}}
\citation{grafyNavod}
\@writefile{toc}{\contentsline {subsection}{\numberline {7.4}Dopln\IeC {\v e}n\IeC {\'\i } graf\IeC {\r u} a statistiky}{50}}
\newlabel{sec:grafStat}{{7.4}{50}}
\@writefile{lof}{\contentsline {figure}{\numberline {11}{\ignorespaces Graf pou\IeC {\v z}it\IeC {\'\i } objekt\IeC {\r u}}}{51}}
\newlabel{obr.grafObjektu}{{11}{51}}
\@writefile{lof}{\contentsline {figure}{\numberline {12}{\ignorespaces Graf pou\IeC {\v z}it\IeC {\'\i } p\IeC {\v r}echod\IeC {\r u}}}{52}}
\newlabel{obr.grafKolac}{{12}{52}}
\@writefile{toc}{\contentsline {subsection}{\numberline {7.5}Posledn\IeC {\'\i } drobn\IeC {\'e} \IeC {\'u}pravy}{52}}
\newlabel{sec:posledniUpravy}{{7.5}{52}}
\@writefile{toc}{\contentsline {subsection}{\numberline {7.6}Co chyb\IeC {\'\i } dod\IeC {\v e}lat}{52}}
\newlabel{sec:coDodelat}{{7.6}{52}}
\@writefile{toc}{\contentsline {section}{\numberline {8}Z\IeC {\'a}v\IeC {\v e}r}{54}}
\newlabel{sec:zaver}{{8}{54}}
\bibcite{puvodniPrace}{1}
\bibcite{sylab}{2}
\bibcite{bussinessMod}{3}
\bibcite{pnfitBrno1}{4}
\bibcite{javaBook}{5}
\bibcite{knihaGit}{6}
\bibcite{java.com}{7}
\bibcite{vogellaJava}{8}
\bibcite{java8}{9}
\bibcite{java8Introduction}{10}
\bibcite{eclipseIntroduction}{11}
\bibcite{latex}{12}
\bibcite{latexCZ}{13}
\bibcite{gmfdoc1}{14}
\bibcite{gmfdoc2}{15}
\bibcite{groovy}{16}
\bibcite{groovycz2}{17}
\@writefile{toc}{\contentsline {section}{\numberline {9}Reference}{55}}
\bibcite{groovycz3}{18}
\bibcite{javaScriptingOracle}{19}
\bibcite{javaScripting}{20}
\bibcite{javaGroovy}{21}
\bibcite{eclipseHelp}{22}
\bibcite{properties}{23}
\bibcite{grafyNavod}{24}
\@writefile{toc}{\contentsline {section}{\numberline {10}Seznam p\IeC {\v r}\IeC {\'\i }loh}{57}}
\@writefile{toc}{\contentsline {section}{P\v {r}\'{\i }lohy}{57}}
\@writefile{toc}{\contentsline {section}{\numberline {A}Vypisy d\IeC {\r u}le\IeC {\v z}it\IeC {\'y}ch \IeC {\v c}\IeC {\'a}st\IeC {\'\i } zdrojov\IeC {\'e}ho k\IeC {\'o}du}{58}}
\newlabel{pri.kody}{{A}{58}}
\newlabel{src:ChangeAction}{{25}{58}}
\@writefile{lol}{\contentsline {lstlisting}{\numberline {25}T\IeC {\v r}\IeC {\'\i }da zast\IeC {\v r}e\IeC {\v s}uj\IeC {\'\i }c\IeC {\'\i } prov\IeC {\'a}d\IeC {\v e}n\IeC {\'\i } zm\IeC {\v e}n.}{58}}
\newlabel{src:toMapFull}{{26}{59}}
\@writefile{lol}{\contentsline {lstlisting}{\numberline {26}Metoda pro p\IeC {\v r}evod \IeC {\v r}et\IeC {\v e}zce na mapu}{59}}
\newlabel{src:toSimulacePohyb}{{27}{59}}
\@writefile{lol}{\contentsline {lstlisting}{\numberline {27}Simulace p\IeC {\v r}esunu objekt\IeC {\r u} mapu}{59}}
\newlabel{src:capacity}{{28}{60}}
\@writefile{lol}{\contentsline {lstlisting}{\numberline {28}K\IeC {\'o}d \IeC {\v z}e\IeC {\v s}\IeC {\'\i }c\IeC {\'\i } omezen\IeC {\'\i } kapacity m\IeC {\'\i }sta.}{60}}
\newlabel{src:provedAll}{{29}{61}}
\@writefile{lol}{\contentsline {lstlisting}{\numberline {29}Metoda pro prov\IeC {\'a}d\IeC {\v e}n\IeC {\'\i } p\IeC {\v r}echod\IeC {\r u}.}{61}}
\@writefile{toc}{\contentsline {section}{\numberline {B}Z\IeC {\'a}klady nastaven\IeC {\'\i } skriptu p\IeC {\v r}echodu}{63}}
\newlabel{pri.pouitiscriptu}{{B}{63}}
